<svg xmlns="http://www.w3.org/2000/svg" width="17.442" height="17.442" viewBox="0 0 17.442 17.442">
  <path id="Path_26" data-name="Path 26" d="M0,0H10.334V10.333" transform="translate(8.721 16.028) rotate(-135)" fill="none" stroke="#707070" stroke-linecap="round" stroke-linejoin="round" stroke-width="2"/>
</svg>
