<svg xmlns="http://www.w3.org/2000/svg" xmlns:xlink="http://www.w3.org/1999/xlink" width="72" height="72" viewBox="0 0 72 72">
  <g id="Cart_icon" data-name="Cart icon" transform="translate(-1353 -21)">
    <g id="Group_38" data-name="Group 38" transform="translate(391)">
      <g transform="matrix(1, 0, 0, 1, 962, 21)" filter="url(#Rectangle_39)">
        <rect id="Rectangle_39-2" data-name="Rectangle 39" width="60" height="60" rx="30" transform="translate(6 4)" fill="#f0f0f0"/>
      </g>
      <path id="Icon_awesome-shopping-cart" data-name="Icon awesome-shopping-cart" d="M29.436,16.794,32.07,5.2a1.338,1.338,0,0,0-1.3-1.634H8.874l-.511-2.5A1.338,1.338,0,0,0,7.052,0H1.338A1.338,1.338,0,0,0,0,1.338v.892A1.338,1.338,0,0,0,1.338,3.567h3.9L9.148,22.709a3.122,3.122,0,1,0,3.737.477H24.57a3.12,3.12,0,1,0,3.545-.58l.307-1.353a1.338,1.338,0,0,0-1.3-1.634H12.157l-.365-1.784H28.131A1.338,1.338,0,0,0,29.436,16.794Z" transform="translate(981.198 40.731)" fill="#707070"/>
    </g>
  </g>
</svg>
