<svg xmlns="http://www.w3.org/2000/svg" width="30.406" height="30.406" viewBox="0 0 30.406 30.406">
  <g id="Group_28" data-name="Group 28" transform="translate(-216.297 -8.672)">
    <path id="Path_13" data-name="Path 13" d="M278,7h35" transform="translate(27.5 -190.025) rotate(45)" fill="none" stroke="#707070" stroke-linecap="round" stroke-width="4"/>
    <path id="Path_14" data-name="Path 14" d="M0,0H35" transform="translate(243.874 11.5) rotate(135)" fill="none" stroke="#707070" stroke-linecap="round" stroke-width="4"/>
  </g>
</svg>
